…
``` r
homicide_df =
  read_csv("./data/homicide-data.csv") %>% 
  unite(city_state, city:state, sep = ", ") %>% 
  mutate(city_state = replace(city_state, city_state == "Tulsa, AL", "Tulsa, OK")) %>% 
  group_by(city_state) %>% 
  summarize(
    n_obs = n(),
    n_unsolved_obs = sum(disposition %in% c("Closed without arrest", "Open/No arrest"))
  )

homicide_df
```

    ## # A tibble: 50 × 3
    ##    city_state      n_obs n_unsolved_obs
    ##    <chr>           <int>          <int>
    ##  1 Albuquerque, NM   378            146
    ##  2 Atlanta, GA       973            373
    ##  3 Baltimore, MD    2827           1825
    ##  4 Baton Rouge, LA   424            196
    ##  5 Birmingham, AL    800            347
    ##  6 Boston, MA        614            310
    ##  7 Buffalo, NY       521            319
    ##  8 Charlotte, NC     687            206
    ##  9 Chicago, IL      5535           4073
    ## 10 Cincinnati, OH    694            309
    ## # … with 40 more rows
…
